RMP
…
first_name <- sub(".*,", "", professor_links$Name) # extract first name 
last_name <- sub(",.*", "", professor_links$Name) # extract last name 
professor_links$Name <- paste(first_name, last_name) # marry the two 
professor_links$Name <- trimws(professor_links$Name) # kill the whitespace 
professor_links$URL <- paste0("http://www.ratemyprofessors.com", professor_links$URL) # make it a full url 
professor_links$Subject <- sub(".*, ", "", professor_links$Subject) # trim the school name from the subject 
professor_links <- unique(professor_links) # remove duplicates 
professor_links <- as.tibble(professor_links) # i like tibbles :) 

## Warning: `as.tibble()` is deprecated, use `as_tibble()` (but mind the new semantics).
## This warning is displayed once per session.

professor_links 

## # A tibble: 654 x 3
##    Name          URL                                          Subject      
##    <chr>         <chr>                                        <chr>        
##  1 Stagliano     http://www.ratemyprofessors.com/ShowRatings Science      
##  2 Poros         http://www.ratemyprofessors.com/ShowRatings Sociology    
##  3 Jafar  Saniie http://www.ratemyprofessors.com/ShowRatings Engineering  
##  4 Issac  Ginsb http://www.ratemyprofessors.com/ShowRatings Engineering  
##  5 Michael  Lee  http://www.ratemyprofessors.com/ShowRatings Computer Sci
##  6 Edward  Rein http://www.ratemyprofessors.com/ShowRatings Computer Sci
##  7 Jesus  Miran http://www.ratemyprofessors.com/ShowRatings Computer Sci
##  8 Matthew  Bau http://www.ratemyprofessors.com/ShowRatings Computer Sci
##  9 Jack  Snapper http://www.ratemyprofessors.com/ShowRatings Humanities   
## 10 Braja  Mandal http://www.ratemyprofessors.com/ShowRatings Chemistry    
## #  with 644 more rows

Lets start by just taking CS professors

full_subject_name <-"Computer Science" 
abbreviated_subject_name <- "CS" 

cs_professors <- professor_links %>% 
  filter(Subject == full_subject_name) 

cs_professors 

## # A tibble: 69 x 3
##    Name            URL                                        Subject      
##    <chr>           <chr>                                      <chr>        
##  1 Michael  Lee    http://www.ratemyprofessors.com/ShowRatin Computer Sci
##  2 Edward  Reingo http://www.ratemyprofessors.com/ShowRatin Computer Sci
##  3 Jesus  Miranda  http://www.ratemyprofessors.com/ShowRatin Computer Sci
##  4 Matthew  Bauer  http://www.ratemyprofessors.com/ShowRatin Computer Sci
##  5 Cynthia  Hood   http://www.ratemyprofessors.com/ShowRatin Computer Sci
##  6 Virgil  Bistri http://www.ratemyprofessors.com/ShowRatin Computer Sci
##  7 Jon  Hanrath    http://www.ratemyprofessors.com/ShowRatin Computer Sci
##  8 C. Robert  Car http://www.ratemyprofessors.com/ShowRatin Computer Sci
##  9 Bill  Lidinsky  http://www.ratemyprofessors.com/ShowRatin Computer Sci
## 10 Mattox  Beckman http://www.ratemyprofessors.com/ShowRatin Computer Sci
## #  with 59 more rows
…
two_courses$Course_Number <- as.numeric(as.character(substr(two_courses$Course_Number, 4, 6))) # just get the last three-digit course 
professor_ratings$Course_Number <- as.numeric(as.character(substr(professor_ratings$Course_Number, 1, 3))) # just get the first three-digit course 
professor_ratings <- rbind(professor_ratings, two_courses) # combine the two :) 

# If the course number is less than 100, it doesn't exist at Illinois Tech. This is a section number usually, so throw it out! 
# If it's bigger than 999999, it's three courses? Who does that? This is where I draw the line. 
professor_ratings$Course_Number <- ifelse(professor_ratings$Course_Number < 100 | professor_ratings$Course_Number > 999999, 0, professor_ratings$Course_Number) 
professor_ratings$Course_Number <- ifelse(professor_ratings$Course_Number == 0, "Other", professor_ratings$Course_Number) # make the "Other" category official 

professor_ratings <- as.tibble(unique(professor_ratings)) # i still like tibbles 

professor_ratings 

## # A tibble: 639 x 7
##    Name     Course Rating Quality Difficulty Comments         Course_Number
##    <chr>    <chr>  <fct>    <dbl>      <dbl> <chr>            <chr>        
##  1 Michael CS450  good         4          4 Pro. lee absolu 450          
##  2 Michael CS401  aweso       5          3 Awesome lecture 401          
##  3 Michael CS351  aweso       5          3 His teaching st 351          
##  4 Michael CS351  aweso       5          5 This class is a 351          
##  5 Michael CS331  good         4          4 He is a great t 331          
##  6 Michael CS331  aweso       5          3 Saelee is by fa 331          
##  7 Michael CS100  good         4          3 SUUUUUUPER ener 100          
##  8 Michael CS351  aweso       5          4 Really good at  351          
##  9 Michael CS331  aweso       5          3 Great professor 331          
## 10 Michael CS331  aweso       5          4 He is very pati 331          
## #  with 629 more rows
…
